<svg width="255" height="193" viewBox="0 0 255 193" fill="none" xmlns="http://www.w3.org/2000/svg">
<mask id="mask0" mask-type="alpha" maskUnits="userSpaceOnUse" x="0" y="0" width="255" height="193">
<rect width="255" height="193" fill="#C4C4C4"/>
</mask>
<g mask="url(#mask0)">
<path d="M119.581 88.7861C48.109 130.744 18.0213 250.824 8.54125 269.639L56.6402 343.171L389.918 125.167L324.418 25.0326C303.816 34.806 279.298 47.3514 249.02 58.2267C200.139 75.7838 164.372 62.4914 119.581 88.7861Z" fill="white" fill-opacity="0.26"/>
<path d="M47.1414 233.376C9.4137 260.531 -56.672 291.607 -56.672 291.607L39.5259 438.671L428.518 184.223L319.187 17.082C319.187 17.082 254.629 17.0516 216.349 30.2406C118.735 63.8728 130.938 173.062 47.1414 233.376Z" fill="white" fill-opacity="0.6"/>
<path d="M43.934 145.817C7.92329 170.707 -30.6066 219.875 -33.4627 226.903L100.656 431.939C234.159 345.687 507.293 168.529 531.81 149.912C556.326 131.295 505.034 85.6048 476.323 65.0868C476.323 65.0868 378.935 104.771 313.729 120.559C210.878 145.461 130.985 85.647 43.934 145.817Z" fill="white" fill-opacity="0.35"/>
</g>
</svg>
