<svg width="255" height="257" viewBox="0 0 255 257" fill="none" xmlns="http://www.w3.org/2000/svg">
<mask id="mask0" mask-type="alpha" maskUnits="userSpaceOnUse" x="0" y="0" width="255" height="263">
<rect width="255" height="263" fill="#C4C4C4"/>
</mask>
<g mask="url(#mask0)">
<path d="M101.935 94.3959C40.5644 150.094 35.691 273.79 30.2625 294.147L92.3933 356.278L373.996 74.6752L289.388 -9.93287C271.222 3.85041 249.791 21.1484 222.38 37.9905C178.127 65.1807 140.397 59.4903 101.935 94.3959Z" fill="white" fill-opacity="0.26"/>
<path d="M60.6234 250.751C29.2522 285.053 -29.0739 328.998 -29.0739 328.998L95.1876 453.259L423.866 124.581L282.64 -16.6444C282.64 -16.6444 219.443 -3.46085 184.673 17.2837C96.0086 70.183 130.302 174.563 60.6234 250.751Z" fill="white" fill-opacity="0.6"/>
<path d="M39.5627 165.702C9.40884 197.436 -18.2422 253.449 -19.5993 260.913L153.646 434.158C266.669 322.407 497.761 93.0961 517.948 69.8554C538.136 46.6147 478.578 12.3898 446.275 -1.81761C446.275 -1.81761 359.071 56.9592 298.476 85.7592C202.9 131.185 112.456 88.9891 39.5627 165.702Z" fill="white" fill-opacity="0.35"/>
</g>
</svg>
