<svg width="391" height="70" viewBox="0 0 391 70" fill="none" xmlns="http://www.w3.org/2000/svg">
<path d="M264.041 24.4404V27.1363H267.663V24.4404H264.041Z" fill="white"/>
<path d="M267.663 41.3472V28.7018H264.041V41.3472H267.663Z" fill="white"/>
<path d="M285.679 24.4404V27.1363H289.305V24.4404H285.679Z" fill="white"/>
<path d="M285.679 28.7006V41.346H289.305V28.7006H285.679Z" fill="white"/>
<path d="M48.2671 40.6856V28.4057H50.4057V40.6856H48.2671Z" fill="white"/>
<path d="M70.4766 40.6856V28.4057H72.6152V40.6856H70.4766Z" fill="white"/>
<path d="M343.431 43.9454C343.389 44.7921 342.687 45.4668 341.831 45.4668C340.943 45.4668 340.23 44.7481 340.23 43.8628V43.1534V41.0134V38.8614V38.1534C340.23 37.2681 340.943 36.5494 341.831 36.5494C342.687 36.5494 343.389 37.2241 343.431 38.0734C343.433 38.0961 343.433 38.1254 343.433 38.1534C343.433 38.1828 343.433 38.2134 343.431 38.2428V38.8614V41.0134V43.1534V43.7734C343.433 43.8028 343.433 43.8334 343.433 43.8628C343.433 43.8881 343.433 43.9174 343.431 43.9454ZM336.578 44.1121V46.2574V48.4068V49.0268C336.581 49.0548 336.581 49.0854 336.581 49.1121C336.581 49.1401 336.581 49.1721 336.578 49.1974C336.577 49.2161 336.575 49.2374 336.573 49.2548C336.501 50.0761 335.813 50.7188 334.977 50.7188C334.089 50.7188 333.373 50.0001 333.373 49.1121V48.4068V46.2574V45.5441V44.1121L333.366 44.1148V44.1121C333.367 44.0734 333.367 44.0388 333.367 44.0001C333.373 43.9508 333.373 43.9094 333.373 43.8628V41.0308V41.0134V38.1534V38.1508V35.7428C333.373 34.8574 334.089 34.1388 334.977 34.1388C335.833 34.1388 336.533 34.8121 336.578 35.6614C336.581 35.6881 336.581 35.7134 336.581 35.7428C336.581 35.7708 336.581 35.8028 336.578 35.8334V39.3148V41.0134V41.1508V43.8628C336.578 43.9481 336.581 44.0308 336.583 44.1148L336.578 44.1121ZM329.727 43.8628C329.727 43.8881 329.727 43.9174 329.723 43.9454C329.679 44.7921 328.979 45.4668 328.121 45.4668C327.235 45.4668 326.518 44.7481 326.518 43.8628V43.1534V41.0134V38.8614V38.1534C326.518 37.2681 327.235 36.5494 328.121 36.5494C328.979 36.5494 329.679 37.2241 329.723 38.0734C329.727 38.0961 329.727 38.1254 329.727 38.1534C329.727 38.1828 329.727 38.2134 329.723 38.2428V38.8614V41.0134V43.1534V43.7734C329.727 43.8028 329.727 43.8334 329.727 43.8628ZM339.662 33.3694C339.675 33.3908 339.682 33.4148 339.694 33.4321C339.682 33.4148 339.675 33.3908 339.662 33.3721L339.661 33.3694H339.662ZM346.549 35.8468C346.118 34.9588 345.438 34.2108 344.605 33.6934C344.59 33.6854 344.571 33.6721 344.554 33.6614L344.553 33.6588C344.115 33.3721 343.822 32.8801 343.822 32.3121C343.822 31.9014 343.979 31.5214 344.242 31.2374L344.238 31.2348C344.726 30.6748 345.021 29.9428 345.021 29.1428C345.021 28.8694 344.985 28.6094 344.922 28.3574C344.571 26.9761 343.322 25.9508 341.831 25.9508C340.355 25.9508 339.118 26.9508 338.75 28.3094C338.678 28.5734 338.641 28.8548 338.641 29.1428C338.641 29.9428 338.93 30.6694 339.414 31.2294C339.423 31.2374 339.433 31.2481 339.438 31.2548C339.446 31.2654 339.459 31.2761 339.469 31.2894C339.553 31.3908 339.627 31.5054 339.682 31.6281C339.785 31.8361 339.839 32.0681 339.839 32.3121C339.839 32.6428 339.739 32.9454 339.573 33.2001C339.262 32.6388 338.851 32.1454 338.37 31.7374C338.174 31.5681 337.966 31.4174 337.75 31.2788C337.733 31.2681 337.718 31.2574 337.699 31.2521V31.2481C337.575 31.1694 337.465 31.0708 337.37 30.9614C337.119 30.6828 336.967 30.3094 336.967 29.9041C336.967 29.8254 336.971 29.7521 336.985 29.6801C337.03 29.3521 337.174 29.0574 337.386 28.8254V28.8228C337.871 28.2628 338.167 27.5308 338.167 26.7321C338.167 24.9694 336.737 23.5414 334.977 23.5414C333.214 23.5414 331.787 24.9694 331.787 26.7321C331.787 27.5268 332.075 28.2521 332.555 28.8094C332.575 28.8308 332.594 28.8548 332.613 28.8748L332.617 28.8828C332.802 29.1014 332.927 29.3748 332.966 29.6748C332.978 29.7508 332.986 29.8254 332.986 29.9041C332.986 30.3094 332.833 30.6828 332.586 30.9614C332.487 31.0708 332.375 31.1694 332.253 31.2521C332.233 31.2601 332.211 31.2761 332.19 31.2894C331.974 31.4214 331.771 31.5734 331.578 31.7374C331.097 32.1454 330.687 32.6388 330.377 33.1974C330.211 32.9454 330.111 32.6388 330.111 32.3121C330.111 32.0681 330.169 31.8361 330.267 31.6281C330.334 31.4894 330.413 31.3641 330.513 31.2548C331.009 30.6934 331.313 29.9534 331.313 29.1428C331.313 28.8548 331.274 28.5734 331.201 28.3094C330.834 26.9508 329.594 25.9508 328.121 25.9508C326.629 25.9508 325.379 26.9721 325.027 28.3548C324.963 28.6041 324.927 28.8694 324.927 29.1428C324.927 29.9428 325.225 30.6694 325.706 31.2294C325.722 31.2481 325.739 31.2681 325.761 31.2894C325.99 31.5681 326.13 31.9214 326.13 32.3121C326.13 32.8668 325.849 33.3601 325.422 33.6454C325.415 33.6508 325.405 33.6561 325.398 33.6614C325.381 33.6721 325.362 33.6854 325.345 33.6961C323.857 34.6228 322.867 36.2734 322.867 38.1508V38.1534V41.0134V43.8628C322.867 46.7628 325.222 49.1121 328.121 49.1121C328.543 49.1121 328.957 49.0654 329.349 48.9721C329.365 48.9668 329.379 48.9641 329.397 48.9588C329.507 48.9321 329.615 48.9041 329.723 48.8641H329.727C329.727 48.9481 329.723 49.0308 329.723 49.1121C329.723 49.9694 329.927 50.7761 330.29 51.4868C331.155 53.1948 332.93 54.3668 334.977 54.3668C335.402 54.3668 335.807 54.3174 336.201 54.2214C336.329 54.1934 336.454 54.1588 336.578 54.1174H336.583C338.181 53.6068 339.446 52.3468 339.967 50.7521C340.11 50.3121 340.198 49.8494 340.222 49.3641C340.225 49.3254 340.225 49.2894 340.227 49.2481C340.23 49.2028 340.23 49.1588 340.23 49.1121C340.23 49.0814 340.23 49.0494 340.227 49.0188C340.225 48.9668 340.225 48.9148 340.222 48.8641C340.222 48.8641 340.227 48.8641 340.23 48.8668C340.733 49.0268 341.273 49.1121 341.831 49.1121C342.253 49.1121 342.665 49.0654 343.058 48.9721C343.185 48.9401 343.31 48.9068 343.431 48.8641H343.438C345.035 48.3521 346.299 47.0961 346.822 45.5001C346.963 45.0601 347.053 44.5961 347.075 44.1121C347.078 44.0734 347.078 44.0388 347.078 44.0001C347.083 43.9508 347.083 43.9094 347.083 43.8628V41.0134V40.8468V38.1534V38.1508C347.083 38.1254 347.083 38.0934 347.078 38.0654C347.069 37.2681 346.878 36.5161 346.549 35.8468Z" fill="white"/>
<path d="M353.457 27.4347L353.428 27.4013L353.329 27.304L346.109 20.0827L345.819 19.796L340.755 14.7267L340.615 14.588L338.475 12.4533C338.199 12.172 337.885 11.9267 337.547 11.7213C336.8 11.2627 335.917 11 334.977 11C334.032 11 333.149 11.2627 332.401 11.7187C332.139 11.8827 331.893 12.0627 331.667 12.2653L331.291 12.6453L329.347 14.5853L329.205 14.724L324.128 19.804L323.844 20.088L316.632 27.2947L316.624 27.3013L316.62 27.304L316.489 27.4347L316.485 27.4373C316.185 27.7733 316 28.2187 316 28.7027C316 29.184 316.183 29.6253 316.477 29.9587L316.62 30.104L316.624 30.1093C316.961 30.4107 317.404 30.5933 317.889 30.5933C318.412 30.5933 318.883 30.3827 319.225 30.0413L319.229 30.044L324.052 25.2187L324.213 25.0573L330.743 18.528L332.475 16.7987L332.597 16.672L332.613 16.6613C332.647 16.6253 332.675 16.5933 332.711 16.5627C332.713 16.56 332.719 16.56 332.719 16.56C332.748 16.5253 332.776 16.5 332.803 16.476C333.38 15.9653 334.144 15.656 334.977 15.656C335.823 15.656 336.599 15.9787 337.183 16.508L337.188 16.5133C337.224 16.5467 337.261 16.5827 337.295 16.6173C337.301 16.6253 337.311 16.6293 337.316 16.6373L337.341 16.664L339.207 18.528L345.737 25.0573L345.901 25.2187L350.721 30.044L350.724 30.0413C351.068 30.3827 351.537 30.5933 352.06 30.5933C352.547 30.5933 352.989 30.4107 353.323 30.1067L353.329 30.1013L353.457 29.9707H353.461C353.765 29.6347 353.951 29.1867 353.951 28.7027C353.951 28.216 353.764 27.768 353.457 27.4347Z" fill="white"/>
<path d="M152.127 36.8013C152.127 33.6266 149.335 32.7973 146.304 32.0879C144.288 31.6133 142.655 31.2346 142.655 29.5519C142.655 27.8719 144.171 27.2586 145.827 27.2586C147.627 27.2586 149.168 27.9666 150.16 29.2933L151.867 28.0839C150.494 26.2613 148.338 25.2919 145.947 25.2919C142.775 25.2919 140.432 26.9266 140.432 29.7666C140.432 32.7506 142.963 33.6519 145.638 34.2186C148.078 34.7626 149.878 35.1173 149.878 36.9906C149.878 38.6946 148.434 39.6879 146.304 39.6879C144.432 39.6879 142.632 38.9533 141.542 37.2266L139.718 38.3853C140.903 40.3519 143.154 41.6306 146.135 41.6306C149.783 41.6306 152.127 39.6879 152.127 36.8013Z" fill="white"/>
<path d="M163.208 39.3335V41.3468H165.268V29.0322H163.208V35.8762C163.208 38.1748 161.598 39.7122 159.468 39.7122C157.172 39.7122 156.741 37.9842 156.741 36.5162V29.0322H154.681V36.9895C154.681 39.9028 156.341 41.6308 158.992 41.6308C160.792 41.6308 162.166 40.8028 163.208 39.3335Z" fill="white"/>
<path d="M170.783 35.2138C170.783 32.7031 172.155 30.6671 174.762 30.6671C177.366 30.6671 178.622 32.7031 178.622 35.2138C178.622 37.7245 177.366 39.7378 174.762 39.7378C172.182 39.7378 170.783 37.7245 170.783 35.2138ZM175.163 41.6298C178.644 41.6298 180.822 38.8365 180.822 35.1898C180.822 31.5658 178.668 28.7485 175.163 28.7485C173.48 28.7485 171.944 29.3885 170.783 31.0711V29.0325H168.723V45.4658H170.783V39.3338C171.944 40.9911 173.48 41.6298 175.163 41.6298Z" fill="white"/>
<path d="M192.448 34.0991H184.92C185.084 32.0165 186.529 30.5231 188.682 30.5231C190.625 30.5231 192.237 31.7325 192.448 34.0991ZM182.669 35.2378C182.669 38.8845 184.966 41.6298 188.969 41.6298C191.145 41.6298 192.781 40.8245 194.033 39.4751L192.661 38.1258C191.69 39.1685 190.484 39.7378 189.013 39.7378C186.598 39.7378 184.989 38.2431 184.872 35.6858H194.53C194.557 35.5205 194.578 35.2605 194.578 34.8831C194.578 31.4485 192.33 28.7485 188.708 28.7485C184.942 28.7485 182.669 31.6138 182.669 35.2378Z" fill="white"/>
<path d="M204.429 29.2452C204.072 29.0078 203.457 28.7958 202.746 28.7958C201.232 28.7958 200 29.7892 199.172 31.1158V29.0332H197.112V41.3465H199.172V34.9305C199.172 32.2758 200.71 30.8305 202.346 30.8305C202.91 30.8305 203.361 30.9985 203.768 31.2118L204.429 29.2452Z" fill="white"/>
<path d="M219.364 36.3964C219.364 33.1298 216.569 32.1364 213.255 31.5431C211.549 31.2351 210.033 30.9991 210.033 29.8391C210.033 28.8204 210.981 28.3444 212.307 28.3444C213.801 28.3444 215.291 28.9138 216.239 30.2404L219.057 28.4871C217.471 26.1444 214.891 25.2924 212.38 25.2924C208.731 25.2924 206.271 27.1151 206.271 30.1231C206.271 33.4378 208.992 34.4564 212.213 35.0244C214.107 35.3551 215.645 35.5911 215.645 36.9191C215.645 37.9378 214.557 38.5511 212.9 38.5511C211.124 38.5511 209.419 37.8884 208.38 36.1124L205.416 37.6751C206.671 40.1631 209.299 41.6311 212.733 41.6311C216.971 41.6311 219.364 39.3804 219.364 36.3964Z" fill="white"/>
<path d="M229.283 39.9246V41.346H232.906V28.7006H229.283V35.898C229.283 37.5313 228.171 38.4086 226.822 38.4086C225.187 38.4086 224.857 37.3206 224.857 36.2526V28.7006H221.234V37.086C221.234 39.6393 222.627 41.63 225.497 41.63C226.961 41.63 228.289 40.9913 229.283 39.9246Z" fill="white"/>
<path d="M245.075 35.047C245.075 36.943 244.176 38.5057 242.236 38.5057C240.27 38.5057 239.275 36.9644 239.275 35.047C239.275 33.1537 240.294 31.543 242.236 31.543C244.176 31.543 245.075 33.1537 245.075 35.047ZM235.654 24.4404V41.347H239.275V39.903C240.318 41.0617 241.619 41.6297 243.159 41.6297C246.711 41.6297 248.914 38.763 248.914 35.023C248.914 31.2577 246.711 28.4164 243.159 28.4164C241.619 28.4164 240.318 28.9857 239.275 30.1444V24.4404H235.654Z" fill="white"/>
<path d="M252.296 36.9183L249.835 38.5516C251.138 40.6596 253.482 41.6303 256.228 41.6303C259.804 41.6303 262.028 39.9503 262.028 37.3209C262.028 34.6929 259.824 33.7916 256.843 33.2943C255.258 33.0343 254.048 32.9396 254.048 32.1356C254.048 31.5436 254.878 31.1876 255.895 31.1876C257.602 31.1876 258.952 31.8969 259.755 32.7263L261.911 30.8089C260.799 29.6249 258.763 28.4169 255.895 28.4169C252.984 28.4169 250.567 29.7423 250.567 32.4663C250.567 35.2369 252.794 36.1129 255.778 36.5156C257.315 36.7289 258.476 36.8929 258.476 37.7943C258.476 38.4329 257.742 38.8356 256.442 38.8356C254.95 38.8356 253.244 38.2916 252.296 36.9183Z" fill="white"/>
<path d="M279.288 35.047C279.288 36.943 278.319 38.5057 276.351 38.5057C274.411 38.5057 273.486 36.943 273.486 35.047C273.486 33.1537 274.411 31.543 276.351 31.543C278.294 31.543 279.288 33.1297 279.288 35.047ZM279.288 24.4404V30.1444C278.272 28.9857 276.968 28.4164 275.428 28.4164C271.876 28.4164 269.674 31.2577 269.674 35.023C269.674 38.763 271.876 41.6297 275.428 41.6297C276.944 41.6297 278.272 41.0617 279.288 39.903V41.347H282.934V24.4404H279.288Z" fill="white"/>
<path d="M295.15 35.0238C295.15 32.9398 296.169 31.4478 298.014 31.4478C299.888 31.4478 300.882 32.9398 300.882 35.0238C300.882 37.1078 299.888 38.5998 298.014 38.5998C296.169 38.5998 295.15 37.1078 295.15 35.0238ZM304.741 35.0478C304.741 31.0945 302.112 28.4172 298.014 28.4172C293.921 28.4172 291.314 31.0945 291.314 35.0478C291.314 38.9785 293.921 41.6305 298.014 41.6305C302.112 41.6305 304.741 38.9785 304.741 35.0478Z" fill="white"/>
<path d="M44.7599 28.4052L40.1146 40.6852H37.8066L33.1426 28.4052H35.4839L38.9532 38.1599L42.4546 28.4052H44.7599Z" fill="white"/>
<path d="M65.6585 30.8207L63.8878 31.8914C63.1865 30.7101 62.0438 30.1007 60.6425 30.1007C58.2291 30.1007 56.8251 31.9274 56.8251 34.5261C56.8251 37.2741 58.2838 38.9901 60.6971 38.9901C62.5985 38.9901 64.0731 37.9194 64.2398 36.0581H60.8465V34.1781H66.3585C66.4158 34.4354 66.4531 34.8421 66.4531 35.1727C66.4531 38.3061 64.3878 40.9074 60.6611 40.9074C56.9731 40.9074 54.5771 38.2514 54.5771 34.5261C54.5771 30.7647 56.9918 28.1821 60.6611 28.1821C62.8745 28.1821 64.5878 29.1807 65.6585 30.8207Z" fill="white"/>
<path d="M77.5205 40.6852V28.4052H79.6605V38.7319H86.2632V40.6852H77.5205Z" fill="white"/>
<path d="M94.601 30.3052L92.609 35.7452H96.5383L94.601 30.3052ZM98.2916 40.6852L97.1276 37.5505H92.0383L90.877 40.6852H88.5356L93.3463 28.4052H95.893L100.705 40.6852H98.2916Z" fill="white"/>
<path d="M109.101 38.7321C111.609 38.7321 112.937 37.0908 112.937 34.5441C112.937 32.0001 111.609 30.3601 109.101 30.3601H106.407V38.7321H109.101ZM104.231 40.6855V28.4055H109.101C113.027 28.4055 115.183 31.0415 115.183 34.5441C115.183 38.0321 113.027 40.6855 109.101 40.6855H104.231Z" fill="white"/>
<path d="M124.724 30.1746C122.289 30.1746 120.869 32.0186 120.869 34.5439C120.869 37.0719 122.289 38.9172 124.724 38.9172C127.138 38.9172 128.578 37.0719 128.578 34.5439C128.578 32.0186 127.138 30.1746 124.724 30.1746ZM124.724 40.9079C120.961 40.9079 118.62 38.1412 118.62 34.5439C118.62 30.9479 120.961 28.1826 124.724 28.1826C128.486 28.1826 130.828 30.9479 130.828 34.5439C130.828 38.1412 128.486 40.9079 124.724 40.9079Z" fill="white"/>
</svg>
